Jaden Chant - NFL Fantasy Point Prediction
…
out <- summary(best3)

Subsets <- as_tibble(out$which) %>%
  mutate(R2 = round(out$rsq, 3),          
         R2adj = round(out$adjr2, 3),
         Cp = round(out$cp,1)) %>%
  select(-1)

# Select the highest R2adj value
Subsets %>%
  arrange(desc(R2adj)) %>%
  print(width = Inf, n=4)

# A tibble: 24 × 12
  `scale(Age, scale = F)` `scale(GamesPlayed, scale = F)`
  <lgl>                   <lgl>                          
1 TRUE                    TRUE                           
2 TRUE                    TRUE                           
3 TRUE                    TRUE                           
4 TRUE                    TRUE                           
  `scale(BMI, scale = F)` `scale(NumTargets, scale = F)`
  <lgl>                   <lgl>                         
1 TRUE                    FALSE                         
2 TRUE                    FALSE                         
3 FALSE                   FALSE                         
4 FALSE                   FALSE                         
  `scale(NumReceptions, scale = F)` `scale(CatchPercent, scale = F)`
  <lgl>                             <lgl>                           
1 TRUE                              FALSE                           
2 TRUE                              TRUE                            
3 TRUE                              FALSE                           
4 TRUE                              TRUE                            
  `scale(GamesStarted, scale = F)` `scale(Weight, scale = F)`
  <lgl>                            <lgl>                     
1 FALSE                            FALSE                     
2 FALSE                            FALSE                     
3 FALSE                            TRUE                      
4 FALSE                            TRUE                      
  `scale(HeightInch, scale = F)`    R2 R2adj    Cp
  <lgl>                          <dbl> <dbl> <dbl>
1 FALSE                          0.453 0.446   2.2
2 FALSE                          0.456 0.446   3.1
3 TRUE                           0.455 0.446   3.2
4 TRUE                           0.457 0.446   4.3
# ℹ 20 more rows
…
